module gitlab.com/maximgaskov38/docker-exporter

go 1.21.0

require (
	github.com/Microsoft/go-winio v0.6.1 // indirect
	github.com/beorn7/perks v1.0.1 // indirect
	github.com/cespare/xxhash/v2 v2.2.0 // indirect
	github.com/docker/distribution v2.8.2+incompatible // indirect
	github.com/docker/docker v24.0.5+incompatible // indirect
	github.com/docker/go-connections v0.4.0 // indirect
	github.com/docker/go-units v0.5.0 // indirect
	github.com/gogo/protobuf v1.3.2 // indirect
	github.com/golang/protobuf v1.5.3 // indirect
	github.com/matttproud/golang_protobuf_extensions v1.0.4 // indirect
	github.com/opencontainers/go-digest v1.0.0 // indirect
	github.com/opencontainers/image-spec v1.0.2 // indirect
	github.com/pkg/errors v0.9.1 // indirect
	github.com/prometheus/client_golang v1.16.0 // indirect
	github.com/prometheus/client_model v0.3.0 // indirect
	github.com/prometheus/common v0.42.0 // indirect
	github.com/prometheus/procfs v0.10.1 // indirect
	golang.org/x/mod v0.8.0 // indirect
	golang.org/x/net v0.7.0 // indirect
	golang.org/x/sys v0.8.0 // indirect
	golang.org/x/tools v0.6.0 // indirect
	google.golang.org/protobuf v1.30.0 // indirect
)
